    getUserToken()
    .then((userToken: any) => {
    userToken = JSON.parse(userToken)
        console.log('tkn - ', userToken['access-token'])
        console.log('cliente - ', userToken['client'])
        console.log('uid - ', userToken['uid'])
    })
    getUserData()
    .then((userData: any) => {
      userData = JSON.parse(userData)
        console.log('email - ', userData.email)
        console.log('pass - ', userData.password)
    })